C:\JAVA\workspace\ShopperServices\src\main\java\com\neoris\businesslogic\BeaconBL.java
C:\JAVA\workspace\ShopperServices\src\main\java\com\neoris\entities\EntityType.java
C:\JAVA\workspace\ShopperServices\src\main\java\ShopperServices\ServletInitializer.java
C:\JAVA\workspace\ShopperServices\src\main\java\com\neoris\dataaccess\BeaconDao.java
C:\JAVA\workspace\ShopperServices\src\main\java\com\neoris\entities\Entity.java
C:\JAVA\workspace\ShopperServices\src\main\java\com\neoris\config\AppConfig.java
C:\JAVA\workspace\ShopperServices\src\main\java\com\neoris\services\BeaconController.java
C:\JAVA\workspace\ShopperServices\src\main\java\com\neoris\entities\Beacon.java
C:\JAVA\workspace\ShopperServices\src\main\java\com\neoris\templates\BeaconInformation.java
C:\JAVA\workspace\ShopperServices\src\main\java\com\neoris\config\WebAppInitializer.java
C:\JAVA\workspace\ShopperServices\src\main\java\ShopperServices\ShopperServicesApplication.java
C:\JAVA\workspace\ShopperServices\src\main\java\com\neoris\config\DatasourceConfig.java
