-------------------------------------------------------------------------------
Test set: ShopperServices.ShopperServicesApplicationTests
-------------------------------------------------------------------------------
Tests run: 1, Failures: 0, Errors: 0, Skipped: 0, Time elapsed: 0.912 sec - in ShopperServices.ShopperServicesApplicationTests
